%!PS-Adobe-3.0 EPSF-3.0
%%Creator: GIMP PostScript file plug-in V 1,17 by Peter Kirchgessner
%%Title: kumeler01.eps
%%CreationDate: Sun Jan 13 19:39:58 2019
%%DocumentData: Clean7Bit
%%LanguageLevel: 2
%%Pages: 1
%%BoundingBox: 14 14 227 136
%%EndComments
%%BeginProlog
% Use own dictionary to avoid conflicts
10 dict begin
%%EndProlog
%%Page: 1 1
% Translate for offset
14.173228346456694 14.173228346456694 translate
% Translate to begin of first scanline
0 121.59999999999999 translate
211.99999999999997 -121.59999999999999 scale
% Image geometry
265 152 8
% Transformation matrix
[ 265 0 0 152 0 0 ]
% Strings to hold RGB-samples per scanline
/rstr 265 string def
/gstr 265 string def
/bstr 265 string def
{currentfile /ASCII85Decode filter /RunLengthDecode filter rstr readstring pop}
{currentfile /ASCII85Decode filter /RunLengthDecode filter gstr readstring pop}
{currentfile /ASCII85Decode filter /RunLengthDecode filter bstr readstring pop}
true 3
%%BeginData:        13919 ASCII Bytes
colorimage
JcC<$q#>j~>
JcC<$q#>j~>
JcC<$q#>j~>
JcC<$q#>j~>
JcC<$q#>j~>
JcC<$q#>j~>
JcC<$q#>j~>
JcC<$q#>j~>
JcC<$q#>j~>
JcC<$q#>j~>
JcC<$q#>j~>
JcC<$q#>j~>
JcC<$q#>j~>
JcC<$q#>j~>
JcC<$q#>j~>
JcC<$q#>j~>
JcC<$q#>j~>
JcC<$q#>j~>
JcC<$q#>j~>
JcC<$q#>j~>
JcC<$q#>j~>
JcC<$q#>j~>
JcC<$q#>j~>
JcC<$q#>j~>
JcC<$q#>j~>
JcC<$q#>j~>
JcC<$q#>j~>
JcC<$q#>j~>
JcC<$q#>j~>
JcC<$q#>j~>
JcC<$q#>j~>
JcC<$q#>j~>
JcC<$q#>j~>
JcC<$q#>j~>
JcC<$q#>j~>
JcC<$q#>j~>
JcC<$q#>j~>
JcC<$q#>j~>
JcC<$q#>j~>
JcC<$q#>j~>
JcC<$q#>j~>
JcC<$q#>j~>
JcC<$q#>j~>
JcC<$q#>j~>
JcC<$q#>j~>
JcC<$q#>j~>
JcC<$q#>j~>
JcC<$q#>j~>
JcF@%!rhrcrpKjYr:^3hYQ'+~>
JcF@%!rhrcrpKjYr:^3hYQ'+~>
JcF@%!rhrcrpKjYr:^3hYQ'+~>
JcFj3&,l+^g<7CQ_o9I2`PTU7bkoojd/M2ka2Gp8`W!dXaOoeR])R9~>
JcFj3&,l+^g<7CQ_o9I2`PTU7bkoojd/M2ka2Gp8`W!dXaOoeR])R9~>
JcFj3&,l+^g<7CQ_o9I2`PTU7bkoojd/M2ka2Gp8`W!dXaOoeR])R9~>
JcG-;%0#bQai)-8`5^<dmJ>oD$2j5JbJV36aPZa-s*t~>
JcG-;%0#bQai)-8`5^<dmJ>oD$2j5JbJV36aPZa-s*t~>
JcG-;%0#bQai)-8`5^<dmJ>oD$2j5JbJV36aPZa-s*t~>
JcG?A$2EN(_SX4/e`lq[rs&Aabe_-;lbrgR~>
JcG?A$2EN(_SX4/e`lq[rs&Aabe_-;lbrgR~>
JcG?A$2EN(_SX4/e`lq[rs&Aabe_-;lbrgR~>
JcGNF#PHlj_84:UpW3@<q:`X"dJ(`^J,~>
JcGNF#PHlj_84:UpW3@<q:`X"dJ(`^J,~>
JcGNF#PHlj_84:UpW3@<q:`X"dJ(`^J,~>
JcG]K#P?Zc_84F]rP/@8n]8GfpWNSe~>
JcG]K#P?Zc_84F]rP/@8n]8GfpWNSe~>
JcG]K#P?Zc_84F]rP/@8n]8GfpWNSe~>
Jc>rBcG76BmJaTp"SBaHh#>V!J,~>
Jc>rBcG76BmJaTp"SBaHh#>V!J,~>
Jc>rBcG76BmJaTp"SBaHh#>V!J,~>
LAqJWl,g`Vf(?0G"66o8qp>@n~>
LAqJWl,g`Vf(?0G"66o8qp>@n~>
LAqJWl,g`Vf(?0G"66o8qp>@n~>
M>mbIaM>XHpo48qn%6[=df4g~>
M>mbIaM>XHpo48qn%6[=df4g~>
M>mbIaM>XHpo48qn%6[=df4g~>
NW01ZgqLMQpnRijn$^Zns*t~>
NW01ZgqLMQpnRijn$^Zns*t~>
NW01ZgqLMQpnRijn$^Zns*t~>
OT,IPc,%-SSc8cPXR4R<J,~>
OT,IPc,%-SSc8cPXR4R<J,~>
OT,IPc,%-SSc8cPXR4R<J,~>
PlCpdikW=ZpR2$_r5-V-s*t~>
PlCpdikW=ZpR2$_r5-V-s*t~>
PlCpdikW=ZpR2$_r5-V-s*t~>
Qi@6gj1VnTrKR<`iiW".s*t~>
Qi@6gj1VnTrKR<`iiW".s*t~>
Qi@6gj1VnTrKR<`iiW".s*t~>
Rf<QjikE.brfI-]or%B6s*t~>
Rf<QjikE.brfI-]or%B6s*t~>
Rf<QjikE.brfI-]or%B6s*t~>
Sc8lmikE.brf$jYqPro9s*t~>
Sc8lmikE.brf$jYqPro9s*t~>
Sc8lmikE.brf$jYqPro9s*t~>
TDo&^_7ee+M#RPTWUS[BJ,~>
TDo&^_7ee+M#RPTWUS[BJ,~>
TDo&^_7ee+M#RPTWUS[BJ,~>
UAkAmd(@^&K`;,NV"NOCJ,~>
UAkAmd(@^&K`;,NV"NOCJ,~>
UAkAmd(@^&K`;,NV"NOCJ,~>
V#LPX]u'5hrr`;pV#K3MJ,~>
V#LPX]u'5hrr`;pV#K3MJ,~>
V#LPX]u'5hrr`;pV#K3MJ,~>
VuHnod(.^*JcG]K!TLuPs*t~>
VuHnod(.^*JcG]K!TLuPs*t~>
VuHnod(.^*JcG]K!TLuPs*t~>
WW*(Y\]XVss7uZq\*`&PJ,~>
WW*(Y\]XVss7uZq\*`&PJ,~>
WW*(Y\]XVss7uZq\*`&PJ,~>
XT&D#dBhPXs7ZHnq4lgHJ,~>
XT&D#dBhPXs7ZHnq4lgHJ,~>
XT&D#dBhPXs7ZHnq4lgHJ,~>
Y5\Uq_7f8fs7?6kal)(VJ,~>
Y5\Uq_7f8fs7?6kal)(VJ,~>
Y5\Uq_7f8fs7?6kal)(VJ,~>
Yl=gg]>XGps7-*iqkr?OJ,~>
Yl=gg]>XGps7-*iqkr?OJ,~>
Yl=gg]>XGps7-*iqkr?OJ,~>
Zi:1,e@4-1JcG0<!O_LVs*t~>
Zi:1,e@4-1JcG0<!O_LVs*t~>
Zi:1,e@4-1JcG0<!O_LVs*t~>
[Jp@,cF3"hs6K[cjiHB[J,~>
[Jp@,cF3"hs6K[cjiHB[J,~>
[Jp@,cF3"hs6K[cjiHB[J,~>
\,QR.dC8Ins69OarhJEOJ,~>
\,QR.dC8Ins69OarhJEOJ,~>
\,QR.dC8Ins69OarhJEOJ,~>
\c2d/b.6qks5s=]UYu0&~>
\c2d/b.6qks5s=]UYu0&~>
\c2d/b.6qks5s=]UYu0&~>
]Di!0b-p_hs5a1\]C=eZJ,~>
]Di!0b-p_hs5a1\]C=eZJ,~>
]Di!0b-p_hs5a1\]C=eZJ,~>
^&J33`k1bls5O%Ze(ip^J,~>
^&J33`k1bls5O%Ze(ip^J,~>
^&J33`k1bls5O%Ze(ip^J,~>
^]+E8caWIrs5<nXh9k3]J,~>
^]+E8caWIrs5<nXh9k3]J,~>
^]+E8caWIrs5<nXh9k3]J,~>
_#FJlZKQl>hZ!W<aPm/L~>
_#FJlZKQl>hZ!W<aPm/L~>
_#FJlZKQl>hZ!W<aPm/L~>
_Z']([+2nj#Q*rHe]YkK`W![X`P]U:eE$5+rrM6&iW"E~>
_Z']([+2nj#Q*rHe]YkK`W![X`P]U:eE$5+rrM6&iW"E~>
_Z']([+2nj#Q*rHe]YkK`W![X`P]U:eE$5+rrM6&iW"E~>
`;]r2\]F`frsShofYk\F`5gQpo(i(\$2X8Rd_s#=aQ*3-rrM$(iW"E~>
`;]r2\]F`frsShofYk\F`5gQpo(i(\$2X8Rd_s#=aQ*3-rrM$(iW"E~>
`;]r2\]F`frsShofYk\F`5gQpo(i(\$2X8Rd_s#=aQ*3-rrM$(iW"E~>
`r?/;^r-#grs/2K_SO.Amf)JN"oI>t^WlG_rrLa(iW"E~>
`r?/;^r-#grs/2K_SO.Amf)JN"oI>t^WlG_rrLa(iW"E~>
`r?/;^r-#grs/2K_SO.Amf)JN"oI>t^WlG_rrLa(iW"E~>
a8Z4n[.MH>"o6id^X2B*rr_r9]&(+"!Q43]s*t~>
a8Z4n[.MH>"o6id^X2B*rr_r9]&(+"!Q43]s*t~>
a8Z4n[.MH>"o6id^X2B*rr_r9]&(+"!Q43]s*t~>
ao;G6[G8n("S'RIa6VCX!ogQA^Ae56qVhI)~>
ao;G6[G8n("S'RIa6VCX!ogQA^Ae56qVhI)~>
ao;G6[G8n("S'RIa6VCX!ogQA^Ae56qVhI)~>
bPq\Ca2%Sqrrhf0^!QN&rrV#^n%er'U>Z'%~>
bPq\Ca2%Sqrrhf0^!QN&rrV#^n%er'U>Z'%~>
bPq\Ca2%Sqrrhf0^!QN&rrV#^n%er'U>Z'%~>
bl7b.Z0TX6"T-TYd.u#f!rT[[_Z'Z5X5O#.~>
bl7b.Z0TX6"T-TYd.u#f!rT[[_Z'Z5X5O#.~>
bl7b.Z0TX6"T-TYd.u#f!rT[[_Z'Z5X5O#.~>
cMmt@\^&G!"6mM9m`PP1fY,3&!Su0%rrBM)!!FcOKtR'Is*t~>
cMmt@\^&G!"6mM9m`PP1fY,3&!Su0%rrBM)!!FcOKtR'Is*t~>
cMmt@\^&G!"6mM9m`PP1fY,3&!Su0%rrBM)!!FcOKtR'Is*t~>
ci4('ZM)TD"TI8idJ_,c!St<)rrK=srVlr-!%Ruc#/[pE8H;3Bnc++~>
ci4('ZM)TD"TI8idJ_,c!St<)rrK=srVlr-!%Ruc#/[pE8H;3Bnc++~>
ci4('ZM)TD"TI8idJ_,c!St<)rrK=srVlr-!%Ruc#/[pE8H;3Bnc++~>
dJj:F^Wk(("8p<Pk/73"e]u27!WJklrrTV/48]$[oLAnNnc++~>
dJj:F^Wk(("8p<Pk/73"e]u27!WJklrrTV/48]$[oLAnNnc++~>
dJj:F^Wk(("8p<Pk/73"e]u27!WJklrrTV/48]$[oLAnNnc++~>
df0C4Xmsa;"8pELm_Ji'XmsI3!Su'!rrTV/48SsYB`Omts*t~>
df0C4Xmsa;"8pELm_Ji'XmsI3!Su'!rrTV/48SsYB`Omts*t~>
df0C4Xmsa;"8pELm_Ji'XmsI3!Su'!rrTV/48SsYB`Omts*t~>
e,KKk_#D^\"9-TVm_8]%pSl45!MfPirrTV/3;rCOm+Rj-<p]AVJ,~>
e,KKk_#D^\"9-TVm_8]%pSl45!MfPirrTV/3;rCOm+Rj-<p]AVJ,~>
e,KKk_#D^\"9-TVm_8]%pSl45!MfPirrTV/3;rCOm+Rj-<p]AVJ,~>
ec,^@XQ\"1!oU?J]Dho<n]Ce3n[A>p!4M\'!]$qRnGe"~>
ec,^@XQ\"1!oU?J]Dho<n]Ce3n[A>p!4M\'!]$qRnGe"~>
ec,^@XQ\"1!oU?J]Dho<n]Ce3n[A>p!4M\'!]$qRnGe"~>
f)Gg$]DKtT!q<SK\c2]t]ug9TZgmqm!k&(arRqG,`esh7k4/J%~>
f)Gg$]DKtT!q<SK\c2]t]ug9TZgmqm!k&(arRqG,`esh7k4/J%~>
f)Gg$]DKtT!q<SK\c2]t]ug9TZgmqm!k&(arRqG,`esh7k4/J%~>
f`)$O^=L[2"9-EXr3u\+UWWT;oWn>n!k&(jqYpYt!(->Ks*t~>
f`)$O^=L[2"9-EXr3u\+UWWT;oWn>n!k&(jqYpYt!(->Ks*t~>
f`)$O^=L[2"9-EXr3u\+UWWT;oWn>n!k&(jqYpYt!(->Ks*t~>
g&D-HWpJ+4!q*2S[Jp6$b5VLJo(r@f[K&Dcrr_Hb!6Fa2J,~>
g&D-HWpJ+4!q*2S[Jp6$b5VLJo(r@f[K&Dcrr_Hb!6Fa2J,~>
g&D-HWpJ+4!q*2S[Jp6$b5VLJo(r@f[K&Dcrr_Hb!6Fa2J,~>
gA_6<Xn^9C!mSIW[/U-$bPqV0\bZ7,[K&Dcrr_9]!6"I.J,~>
gA_6<Xn^9C!mSIW[/U-$bPqV0\bZ7,[K&Dcrr_9]!6"I.J,~>
gA_6<Xn^9C!mSIW[/U-$bPqV0\bZ7,[K&Dcrr_9]!6"I.J,~>
g]%?']`-=Y!rB.VZMsp"bPqU=q>($l[K&Ddrri:a!"J5as*t~>
g]%?']`-=Y!rB.VZMsp"bPqU=q>($l[K&Ddrri:a!"J5as*t~>
g]%?']`-=Y!rB.VZMsp"bPqU=q>($l[K&Ddrri:a!"J5as*t~>
h>[QS\(]4/!plrZZ2Xg!bl7^odeNhD[K%fU_ZdiW@K7Cgnc++~>
h>[QS\(]4/!plrZZ2Xg!bl7^odeNhD[K%fU_ZdiW@K7Cgnc++~>
h>[QS\(]4/!plrZZ2Xg!bl7^odeNhD[K%fU_ZdiW@K7Cgnc++~>
hZ!ZQW:&%4!p$`eYl=]uc2Rh<Vt^2k[eg%-,"mBlmdU7,~>
hZ!ZQW:&%4!p$`eYl=]uc2Rh<Vt^2k[eg%-,"mBlmdU7,~>
hZ!ZQW:&%4!p$`eYl=]uc2Rh<Vt^2k[eg%-,"mBlmdU7,~>
hu<cOVt8:8!RnohrrMqtc2RgEo%O+o~>
hu<cOVt8:8!RnohrrMqtc2RgEo%O+o~>
hu<cOVt8:8!RnohrrMqtc2RgEo%O+o~>
i;WlJVteX=!R&imrrL[&cMmppdFnPM~>
i;WlJVteX=!R&imrrL[&cMmppdFnPM~>
i;WlJVteX=!R&imrrL[&cMmppdFnPM~>
iVruFXo$KF!RAokrrJqnci4%7Wn@?%~>
iVruFXo$KF!RAokrrJqnci4%7Wn@?%~>
iVruFXo$KF!RAokrrJqnci4%7Wn@?%~>
ir9)AZMi/M!RT)nrrM_rci4(ETD@.>J,~>
ir9)AZMi/M!RT)nrrM_rci4(ETD@.>J,~>
ir9)AZMi/M!RT)nrrM_rci4(ETD@.>J,~>
j8T/5^<cf[j1_Vp!O;.?rrKCjfDg@~>
j8T/5^<cf[j1_Vp!O;.?rrKCjfDg@~>
j8T/5^<cf[j1_Vp!O;.?rrKCjfDg@~>
jSo89_U&5_n>`Si!V*PCrrL0nf)L7~>
jSo89_U&5_n>`Si!V*PCrrL0nf)L7~>
jSo89_U&5_n>`Si!V*PCrrL0nf)L7~>
jo5A:^<cf\rLs(hrrK%kd/O.'_U\[:~>
jo5A:^<cf\rLs(hrrK%kd/O.'_U\[:~>
jo5A:^<cf\rLs(hrrK%kd/O.'_U\[:~>
k5PJ>]?^EW^?)Hr!RK?DrrMAheGk%~>
k5PJ>]?^EW^?)Hr!RK?DrrMAheGk%~>
k5PJ>]?^EW^?)Hr!RK?DrrMAheGk%~>
kPkSJYKm.KlFO(s!V!5<rrV\grRCjt~>
kPkSJYKm.KlFO(s!V!5<rrV\grRCjt~>
kPkSJYKm.KlFO(s!V!5<rrV\grRCjt~>
kl1_RWVt-B!MfOorrW"kqU,<Eoq_K6s*t~>
kl1_RWVt-B!MfOorrW"kqU,<Eoq_K6s*t~>
kl1_RWVt-B!MfOorrW"kqU,<Eoq_K6s*t~>
l2LhZU\i@:!TV8'rrW2!n^7@<p8.Q4s*t~>
l2LhZU\i@:!TV8'rrW2!n^7@<p8.Q4s*t~>
l2LhZU\i@:!TV8'rrW2!n^7@<p8.Q4s*t~>
lMgqbVt815!MfRprrKFfdJj:CVtSO<J,~>
lMgqbVt815!MfRprrKFfdJj:CVtSO<J,~>
lMgqbVt815!MfRprrKFfdJj:CVtSO<J,~>
lMgmnkfs,.oX(b#!OUk6rrVnjp<`hi~>
lMgmnkfs,.oX(b#!OUk6rrVnjp<`hi~>
lMgmnkfs,.oX(b#!OUk6rrVnjp<`hi~>
li."4eBIpn`TOH)!rfRedJj:<Vt\O;J,~>
li."4eBIpn`TOH)!rfRedJj:<Vt\O;J,~>
li."4eBIpn`TOH)!rfRedJj:<Vt\O;J,~>
m/I+S[*/ILUTa\!qQ&i-rrVPgqp,4l~>
m/I+S[*/ILUTa\!qQ&i-rrVPgqp,4l~>
m/I+S[*/ILUTa\!qQ&i-rrVPgqp,4l~>
mJd7bU&3%5!2Hdu!q`A[rVm#m3rf97gA_67ZMi&JJ,~>
mJd7bU&3%5!2Hdu!q`A[rVm#m3rf97gA_67ZMi&JJ,~>
mJd7bU&3%5!2Hdu!q`A[rVm#m3rf97gA_67ZMi&JJ,~>
mJd3pm*#D0qQ$n$!opK[r;Qr#!-nQcrnRMSg:YW/J,~>
mJd3pm*#D0qQ$n$!opK[r;Qr#!-nQcrnRMSg:YW/J,~>
mJd3pm*#D0qQ$n$!opK[r;Qr#!-nQcrnRMSg:YW/J,~>
mf*=J`6/)\pT_%(!Qi:Wrs%m84nX(#ce\U%dDa9.J,~>
mf*=J`6/)\pT_%(!Qi:Wrs%m84nX(#ce\U%dDa9.J,~>
mf*=J`6/)\pT_%(!Qi:Wrs%m84nX(#ce\U%dDa9.J,~>
n,EIdU&N47!VWe*rrVepk5,)_RfL#!gAkXZi;WlX^=::)J,~>
n,EIdU&N47!VWe*rrVepk5,)_RfL#!gAkXZi;WlX^=::)J,~>
n,EIdU&N47!VWe*rrVepk5,)_RfL#!gAkXZi;WlX^=::)J,~>
n,EF#kK3`)rhQt%!nOjWqYpi`!(Zhas+LHjiVruRWTM;%J,~>
n,EF#kK3`)rhQt%!nOjWqYpi`!(Zhas+LHjiVruRWTM;%J,~>
n,EF#kK3`)rhQt%!nOjWqYpi`!(Zhas+LHjiVruRWTM;%J,~>
nG`OZZcE(GUUU7)n?:mIrrS#W^]+68iW)XHj8T2GVtJ+1J,~>
nG`OZZcE(GUUU7)n?:mIrrS#W^]+68iW)XHj8T2GVtJ+1J,~>
nG`OZZcE(GUUU7)n?:mIrrS#W^]+68iW)XHj8T2GVtJ+1J,~>
nG`Nhp;d16]'d00"8]gOqtU0ngAk+IrVlq\!4Ltg!n=p_`rCP~>
nG`Nhp;d16]'d00"8]gOqtU0ngAk+IrVlq\!4Ltg!n=p_`rCP~>
nG`Nhp;d16]'d00"8]gOqtU0ngAk+IrVlq\!4Ltg!n=p_`rCP~>
nc&XT^W-9Sn[?(0!n+OKp\t?pFTAfHn,q5A2=p#2!rfpb`;b>~>
nc&XT^W-9Sn[?(0!n+OKp\t?pFTAfHn,q5A2=p#2!rfpb`;b>~>
nc&XT^W-9Sn[?(0!n+OKp\t?pFTAfHn,q5A2=p#2!rfpb`;b>~>
nc&Wfq8N@7X7j:-!nXgAp&>$=p&G)kkl1_VWpIY'J,~>
nc&Wfq8N@7X7j:-!nXgAp&>$=p&G)kkl1_VWpIY'J,~>
nc&Wfq8N@7X7j:-!nXgAp&>$=p&G)kkl1_VWpIY'J,~>
o)AaV]u9pOoV]M)!oC0>o`#$k?i[V2fE9M:*:<%k!nXmW_Z,,~>
o)AaV]u9pOoV]M)!oC0>o`#$k?i[V2fE9M:*:<%k!nXmW_Z,,~>
o)AaV]u9pOoV]M)!oC0>o`#$k?i[V2fE9M:*:<%k!nXmW_Z,,~>
o)A`ooY^\0e'>o3"8gBQj7<3P_uNa5q>UM`!1<-Q!r9CZ_#Jo~>
o)A`ooY^\0e'>o3"8gBQj7<3P_uNa5q>UM`!1<-Q!r9CZ_#Jo~>
o)A`ooY^\0e'>o3"8gBQj7<3P_uNa5q>UM`!1<-Q!r9CZ_#Jo~>
oD\jeWPST8aOA30"80aJm.()Xpe(V#q#:HV!!)*JrrV8aoY:EV~>
oD\jeWPST8aOA30"80aJm.()Xpe(V#q#:HV!!)*JrrV8aoY:EV~>
oD\jeWPST8aOA30"80aJm.()Xpe(V#q#:HV!!)*JrrV8aoY:EV~>
oD\j:hSB-la3Dg-"T@#canY?)"1A1ep@nRgJcLPprrW/6bJ!q+~>
oD\j:hSB-la3Dg-"T@#canY?)"1A1ep@nRgJcLPprrW/6bJ!q+~>
oD\j:hSB-la3Dg-"T@#canY?)"1A1ep@nRgJcLPprrW/6bJ!q+~>
oD\icrP/@6hm3((rr_K!^?Ec?!q3>[]`3K~>
oD\icrP/@6hm3((rr_K!^?Ec?!q3>[]`3K~>
oD\icrP/@6hm3((rr_K!^?Ec?!q3>[]`3K~>
o`"seXhF`:os`6Gec,gPjM8I_r6,*Br5?JN]DmB~>
o`"seXhF`:os`6Gec,gPjM8I_r6,*Br5?JN]DmB~>
o`"seXhF`:os`6Gec,gPjM8I_r6,*Br5?JN]DmB~>
o`"sGe[th`l*Sk8gA_?MeA&`SrQ5'@iiVRXs*t~>
o`"sGe[th`l*Sk8gA_?MeA&`SrQ5'@iiVRXs*t~>
o`"sGe[th`l*Sk8gA_?MeA&`SrQ5'@iiVRXs*t~>
o`"s!o==l(mCp?tro*k\o@LdmbjWUP!r'LX\,Us~>
o`"s!o==l(mCp?tro*k\o@LdmbjWUP!r'LX\,Us~>
o`"s!o==l(mCp?tro*k\o@LdmbjWUP!r'LX\,Us~>
o`"od[f6R0hS?kPm/H>N#QF/D`59@<m_o,,d(/nZs*t~>
o`"od[f6R0hS?kPm/H>N#QF/D`59@<m_o,,d(/nZs*t~>
o`"od[f6R0hS?kPm/H>N#QF/D`59@<m_o,,d(/nZs*t~>
o`"odZMt=)g;CeF_U.6)n+Zh\rseesmcNBR`5KR3`RsVX_Z']*ZK/CmJ,~>
o`"odZMt=)g;CeF_U.6)n+Zh\rseesmcNBR`5KR3`RsVX_Z']*ZK/CmJ,~>
o`"odZMt=)g;CeF_U.6)n+Zh\rseesmcNBR`5KR3`RsVX_Z']*ZK/CmJ,~>
p&>'fY,qX+p$(Acchtrhdb<^GoXt2+pqFfIZi>O~>
p&>'fY,qX+p$(Acchtrhdb<^GoXt2+pqFfIZi>O~>
p&>'fY,qX+p$(Acchtrhdb<^GoXt2+pqFfIZi>O~>
p&>'\]n-4;rr`5F\b36-J,~>
p&>'\]n-4;rr`5F\b36-J,~>
p&>'\]n-4;rr`5F\b36-J,~>
p&>'W`I\'DrrUoTl`^>=~>
p&>'W`I\'DrrUoTl`^>=~>
p&>'W`I\'DrrUoTl`^>=~>
p&>'SaasKJrrV8diiW62~>
p&>'SaasKJrrV8diiW62~>
p&>'SaasKJrrV8diiW62~>
p&>'Y_1DXDrrV`$dB!:t~>
p&>'Y_1DXDrrV`$dB!:t~>
p&>'Y_1DXDrrV`$dB!:t~>
p&>'`[t4S<rr_i(a8Dt;J,~>
p&>'`[t4S<rr_i(a8Dt;J,~>
p&>'`[t4S<rr_i(a8Dt;J,~>
p&>'kV1J[,rr_f*_>'u/J,~>
p&>'kV1J[,rr_f*_>'u/J,~>
p&>'kV1J[,rr_f*_>'u/J,~>
o`"ocJcFj3"7X%DqkjCD~>
o`"ocJcFj3"7X%DqkjCD~>
o`"ocJcFj3"7X%DqkjCD~>
o`"rmq18S0rr_Z!b58"7J,~>
o`"rmq18S0rr_Z!b58"7J,~>
o`"rmq18S0rr_Z!b58"7J,~>
o`"sCf7Eterr_VuaSV_3J,~>
o`"sCf7Eterr_VuaSV_3J,~>
o`"sCf7Eterr_VuaSV_3J,~>
o`"sfX+C<;rr_2hci'O:J,~>
o`"sfX+C<;rr_2hci'O:J,~>
o`"sfX+C<;rr_2hci'O:J,~>
oD\ikpOWA6rr`2M\_<VSJ,~>
oD\ikpOWA6rr`2M\_<VSJ,~>
oD\ikpOWA6rr`2M\_<VSJ,~>
oD\jR`.@sZrr_o1^$_BiJ,~>
oD\jR`.@sZrr_o1^$_BiJ,~>
oD\jR`.@sZrr_o1^$_BiJ,~>
o)A`dq18S=rr_Gqa7u)&J,~>
o)A`dq18S=rr_Gqa7u)&J,~>
o)A`dq18S=rr_Gqa7u)&J,~>
o)AaW\UjeUrri;O\_$hIs*t~>
o)AaW\UjeUrri;O\_$hIs*t~>
o)AaW\UjeUrri;O\_$hIs*t~>
nc&X$k^id2rr_T%^?Us_J,~>
nc&X$k^id2rr_T%^?Us_J,~>
nc&X$k^id2rr_T%^?Us_J,~>
nc&[hUA9B?s8N5td_X?.P5g%~>
nc&[hUA9B?s8N5td_X?.P5g%~>
nc&[hUA9B?s8N5td_X?.P5g%~>
nG`RYX8[bO"TI;k`:K&iJ,~>
nG`RYX8[bO"TI;k`:K&iJ,~>
nG`RYX8[bO"TI;k`:K&iJ,~>
n,EFM[Y=_`n\_uuN;nD~>
n,EFM[Y=_`n\_uuN;nD~>
n,EFM[Y=_`n\_uuN;nD~>
mf*=D]SZXkn]8Djq253&~>
mf*=D]SZXkn]8Djq253&~>
mf*=D]SZXkn]8Djq253&~>
mJd7LZMfg`"S0XBa7Y5fJ,~>
mJd7LZMfg`"S0XBa7Y5fJ,~>
mJd7LZMfg`"S0XBa7Y5fJ,~>
m/I.RX7VST"S0XId.`4nJ,~>
m/I.RX7VST"S0XId.`4nJ,~>
m/I.RX7VST"S0XId.`4nJ,~>
li.%^Z/:lI"RO1Bd.`+kJ,~>
li.%^Z/:lI"RO1Bd.`+kJ,~>
li.%^Z/:lI"RO1Bd.`+kJ,~>
l2Lh4\G2To"o?ld^Y&@5s8N%K~>
l2Lh4\G2To"o?ld^Y&@5s8N%K~>
l2Lh4\G2To"o?ld^Y&@5s8N%K~>
kl1bY[aG)Jrrh]/^;fJis8)bG~>
kl1bY[aG)Jrrh]/^;fJis8)bG~>
kl1bY[aG)Jrrh]/^;fJis8)bG~>
k5PMHZe;5U"ngK]^=W13s7cPD~>
k5PMHZe;5U"ngK]^=W13s7cPD~>
k5PMHZe;5U"ngK]^=W13s7cPD~>
jSo>A\'Y&Trrqr?^qe4^JcG?AJ,~>
jSo>A\'Y&Trrqr?^qe4^JcG?AJ,~>
jSo>A\'Y&Trrqr?^qe4^JcG?AJ,~>
ir9,J]ts-Crrqc4^qeChJcG3=J,~>
ir9,J]ts-Crrqc4^qeChJcG3=J,~>
ir9,J]ts-Crrqc4^qeChJcG3=J,~>
i;WrWd_*`n]Di*(f##8=f_0mrli2J~>
i;WrWd_*`n]Di*(f##8=f_0mrli2J~>
i;WrWd_*`n]Di*(f##8=f_0mrli2J~>
h>[ZPcb79XrPedArThkI_8=akJcFm4J,~>
h>[ZPcb79XrPedArThkI_8=akJcFm4J,~>
h>[ZPcb79XrPedArThkI_8=akJcFm4J,~>
gA_BTiPNCKhtbUu#l*T3_ns:/g@KmqiW"E~>
gA_BTiPNCKhtbUu#l*T3_ns:/g@KmqiW"E~>
gA_BTiPNCKhtbUu#l*T3_ns:/g@KmqiW"E~>
f)H$SkK:ZY`7=2Nh>[i[n`89?_o0F8i:;I!g])d~>
f)H$SkK:ZY`7=2Nh>[i[n`89?_o0F8i:;I!g])d~>
f)H$SkK:ZY`7=2Nh>[i[n`89?_o0F8i:;I!g])d~>
d/OREgr[LQ`Pf^9e(s6XqY'q%r:f^IkMP"A`l,d5_o9[JjRN5#s4.."~>
d/OREgr[LQ`Pf^9e(s6XqY'q%r:f^IkMP"A`l,d5_o9[JjRN5#s4.."~>
d/OREgr[LQ`Pf^9e(s6XqY'q%r:f^IkMP"A`l,d5_o9[JjRN5#s4.."~>
aSuJBo]tJfbesFr!QrUb_>hFZaj/Gmiofb$rIP!ls*t~>
aSuJBo]tJfbesFr!QrUb_>hFZaj/Gmiofb$rIP!ls*t~>
aSuJBo]tJfbesFr!QrUb_>hFZaj/Gmiofb$rIP!ls*t~>
JcC<$q#>j~>
JcC<$q#>j~>
JcC<$q#>j~>
JcC<$q#>j~>
JcC<$q#>j~>
JcC<$q#>j~>
JcC<$q#>j~>
JcC<$q#>j~>
JcC<$q#>j~>
JcC<$q#>j~>
JcC<$q#>j~>
JcC<$q#>j~>
JcC<$q#>j~>
JcC<$q#>j~>
JcC<$q#>j~>
JcC<$q#>j~>
JcC<$q#>j~>
JcC<$q#>j~>
JcC<$q#>j~>
JcC<$q#>j~>
JcC<$q#>j~>
JcC<$q#>j~>
JcC<$q#>j~>
JcC<$q#>j~>
JcC<$q#>j~>
JcC<$q#>j~>
JcC<$q#>j~>
JcC<$q#>j~>
JcC<$q#>j~>
JcC<$q#>j~>
JcC<$q#>j~>
JcC<$q#>j~>
JcC<$q#>j~>
JcC<$q#>j~>
JcC<$q#>j~>
JcC<$q#>j~>
JcC<$q#>j~>
JcC<$q#>j~>
JcC<$q#>j~>
JcC<$q#>j~>
JcC<$q#>j~>
JcC<$q#>j~>
JcC<$q#>j~>
JcC<$q#>j~>
JcC<$q#>j~>
JcC<$q#>j~>
JcC<$q#>j~>
JcC<$q#>j~>
JcC<$q#>j~>
JcC<$q#>j~>
JcC<$q#>j~>
%%EndData
showpage
%%Trailer
end
%%EOF
